{ "results": [

  {"name":"台湾","ACL":{"*":{"write":true,"read":true}},"createdAt":"2015-12-02T14:47:04.903Z","updatedAt":"2015-12-02T14:47:04.903Z","objectId":"1"},
  {"name":"澳门","ACL":{"*":{"write":true,"read":true}},"createdAt":"2015-12-02T14:47:04.950Z","updatedAt":"2015-12-02T14:47:04.950Z","objectId":"2"},
  {"name":"香港","ACL":{"*":{"write":true,"read":true}},"createdAt":"2015-12-02T14:47:04.957Z","updatedAt":"2015-12-02T14:47:04.957Z","objectId":"3"},
  {"name":"新疆","ACL":{"*":{"write":true,"read":true}},"createdAt":"2015-12-02T14:47:04.965Z","updatedAt":"2015-12-02T14:47:04.965Z","objectId":"4"},
  {"name":"宁夏","ACL":{"*":{"write":true,"read":true}},"createdAt":"2015-12-02T14:47:04.973Z","updatedAt":"2015-12-02T14:47:04.973Z","objectId":"5"},
  {"name":"青海","ACL":{"*":{"write":true,"read":true}},"createdAt":"2015-12-02T14:47:04.981Z","updatedAt":"2015-12-02T14:47:04.981Z","objectId":"6"},
  {"name":"甘肃","ACL":{"*":{"write":true,"read":true}},"createdAt":"2015-12-02T14:47:04.989Z","updatedAt":"2015-12-02T14:47:04.989Z","objectId":"7"},
  {"name":"陕西","ACL":{"*":{"write":true,"read":true}},"createdAt":"2015-12-02T14:47:04.996Z","updatedAt":"2015-12-02T14:47:04.996Z","objectId":"8"},
  {"name":"西藏","ACL":{"*":{"write":true,"read":true}},"createdAt":"2015-12-02T14:47:05.004Z","updatedAt":"2015-12-02T14:47:05.004Z","objectId":"9"},
  {"name":"云南","ACL":{"*":{"write":true,"read":true}},"createdAt":"2015-12-02T14:47:05.038Z","updatedAt":"2015-12-02T14:47:05.038Z","objectId":"10"},
  {"name":"贵州","ACL":{"*":{"write":true,"read":true}},"createdAt":"2015-12-02T14:47:05.047Z","updatedAt":"2015-12-02T14:47:05.047Z","objectId":"11"},
  {"name":"四川","ACL":{"*":{"write":true,"read":true}},"createdAt":"2015-12-02T14:47:05.057Z","updatedAt":"2015-12-02T14:47:05.057Z","objectId":"12"},
  {"name":"重庆","ACL":{"*":{"write":true,"read":true}},"createdAt":"2015-12-02T14:47:05.066Z","updatedAt":"2015-12-02T14:47:05.066Z","objectId":"13"},
  {"name":"海南","ACL":{"*":{"write":true,"read":true}},"createdAt":"2015-12-02T14:47:05.091Z","updatedAt":"2015-12-02T14:47:05.091Z","objectId":"14"},
  {"name":"广西","ACL":{"*":{"write":true,"read":true}},"createdAt":"2015-12-02T14:47:05.100Z","updatedAt":"2015-12-02T14:47:05.100Z","objectId":"15"},
  {"name":"广东","ACL":{"*":{"write":true,"read":true}},"createdAt":"2015-12-02T14:47:05.109Z","updatedAt":"2015-12-02T14:47:05.109Z","objectId":"16"},
  {"name":"湖南","ACL":{"*":{"write":true,"read":true}},"createdAt":"2015-12-02T14:47:05.117Z","updatedAt":"2015-12-02T14:47:05.117Z","objectId":"17"},
  {"name":"湖北","ACL":{"*":{"write":true,"read":true}},"createdAt":"2015-12-02T14:47:05.126Z","updatedAt":"2015-12-02T14:47:05.126Z","objectId":"18"},
  {"name":"河南","ACL":{"*":{"write":true,"read":true}},"createdAt":"2015-12-02T14:47:05.135Z","updatedAt":"2015-12-02T14:47:05.135Z","objectId":"19"},
  {"name":"山东","ACL":{"*":{"write":true,"read":true}},"createdAt":"2015-12-02T14:47:05.143Z","updatedAt":"2015-12-02T14:47:05.143Z","objectId":"20"},
  {"name":"江西","ACL":{"*":{"write":true,"read":true}},"createdAt":"2015-12-02T14:47:05.153Z","updatedAt":"2015-12-02T14:47:05.153Z","objectId":"21"},
  {"name":"福建","ACL":{"*":{"write":true,"read":true}},"createdAt":"2015-12-02T14:47:05.173Z","updatedAt":"2015-12-02T14:47:05.173Z","objectId":"22"},
  {"name":"安徽","ACL":{"*":{"write":true,"read":true}},"createdAt":"2015-12-02T14:47:05.185Z","updatedAt":"2015-12-02T14:47:05.185Z","objectId":"23"},
  {"name":"浙江","ACL":{"*":{"write":true,"read":true}},"createdAt":"2015-12-02T14:47:05.195Z","updatedAt":"2015-12-02T14:47:05.195Z","objectId":"24"},
  {"name":"江苏","ACL":{"*":{"write":true,"read":true}},"createdAt":"2015-12-02T14:47:05.202Z","updatedAt":"2015-12-02T14:47:05.202Z","objectId":"25"},
  {"name":"上海","ACL":{"*":{"write":true,"read":true}},"createdAt":"2015-12-02T14:47:05.214Z","updatedAt":"2015-12-02T14:47:05.214Z","objectId":"26"},
  {"name":"黑龙江","ACL":{"*":{"write":true,"read":true}},"createdAt":"2015-12-02T14:47:05.222Z","updatedAt":"2015-12-02T14:47:05.222Z","objectId":"27"},
  {"name":"吉林","ACL":{"*":{"write":true,"read":true}},"createdAt":"2015-12-02T14:47:05.230Z","updatedAt":"2015-12-02T14:47:05.230Z","objectId":"28"},
  {"name":"辽宁","ACL":{"*":{"write":true,"read":true}},"createdAt":"2015-12-02T14:47:05.239Z","updatedAt":"2015-12-02T14:47:05.239Z","objectId":"29"},
  {"name":"内蒙古","ACL":{"*":{"write":true,"read":true}},"createdAt":"2015-12-02T14:47:05.249Z","updatedAt":"2015-12-02T14:47:05.249Z","objectId":"30"},
  {"name":"山西","ACL":{"*":{"write":true,"read":true}},"createdAt":"2015-12-02T14:47:05.257Z","updatedAt":"2015-12-02T14:47:05.257Z","objectId":"31"},
  {"name":"河北","ACL":{"*":{"write":true,"read":true}},"createdAt":"2015-12-02T14:47:05.265Z","updatedAt":"2015-12-02T14:47:05.265Z","objectId":"32"},
  {"name":"天津","ACL":{"*":{"write":true,"read":true}},"createdAt":"2015-12-02T14:47:05.275Z","updatedAt":"2015-12-02T14:47:05.275Z","objectId":"33"},
  {"name":"北京","ACL":{"*":{"write":true,"read":true}},"createdAt":"2015-12-02T14:47:05.287Z","updatedAt":"2015-12-02T14:47:05.287Z","objectId":"34"}] }